Bayesian networks in R
…
---

# A BN of dependent genes

.left-column[

<img src="index_files/figure-html/unnamed-chunk-3-1.png" style="display: block; margin: auto;" />
]

.right-column[
Gene expression levels:

```
## # A tibble: 500 x 5
##    MEK    PIP2   PIP3   PLCG   RAF   
##    <fct>  <fct>  <fct>  <fct>  <fct> 
##  1 Medium Low    High   Medium Medium
##  2 High   Low    Medium Medium High  
##  3 Low    Low    Medium High   Medium
##  4 Medium Medium Medium Medium Medium
##  5 Medium Low    Low    Low    Medium
##  6 Low    Medium Low    High   Medium
##  7 Medium Low    Low    Low    Medium
##  8 Medium Medium High   Medium Low   
##  9 High   Low    Low    Medium Low   
## 10 High   Low    Low    Low    Medium
## # … with 490 more rows
```
…
